"Word","Count","Location"
"aas","1","2896"
"ab","1","660"
"abendhunger","1","9608"
"abendstunde","1","1392"
"abermals","1","8837"
"abgesondert","1","8293"
"abgestiegen","1","5395"
"ablehnen","1","7687"
"abschiedes","1","9701"
"absicht","1","8906"
"abwarten","1","4937"
"abwaschen","1","1164"
"abzustellen","1","2729"
"ach","1","838"
"acht","1","2411"
"achten","1","1000"
"achtfachen","1","6199"
"achtzig","1","3623"
"adlige","1","1104"
"adligen","1","9112"
"adliger","1","9107"
"affenvolk","1","9577"
"ahmte","1","5865"
"ahnen","1","594"
"alledem","1","4016"
"alleine","1","710"
"almosen","1","5888"
"anathapindika","1","5275"
"anathapindikas","1","5406"
"anbieten","1","2481"
"anderen","1","601"
"anderer","1","8332"
"andre","1","1206"
"angebliche","1","4550"
"angeboten","1","5331"
"angenommen","1","2374"
"angovinda","1","2337"
"angstvoll","1","9614"
"anhauch","1","4268"
"anhängen","1","7254"
"anhören","1","4677"
"ankamen","1","5316"
"ankommen","1","5575"
"anlangten","1","5570"
"annahm","1","4817"
"annehmen","1","8178"
"anrufung","1","675"
"ans","1","7592"
"antworten","1","5296"
"anzulegen","1","6744"
"arme","1","5121"
"art","1","8686"
"asketentums","1","8921"
"atharvaveda","1","8520"
"atmangab","1","828"
"atmen","1","1428"
"aufatmend","1","8465"
"auferlegten","1","3061"
"aufgang","1","5607"
"aufgeben","1","2129"
"aufgegangen","1","1936"
"aufgehen","1","9323"
"aufgehoben","1","7157"
"aufgenommen","1","6314"
"aufgetan","1","9523"
"aufhebung","1","6152"
"aufrecht","1","2715"
"aufrichtigkeit","1","6909"
"aufstehen","1","236"
"aufstellte","1","5072"
"aufzusuchen","1","4307"
"auges","1","2506"
"ausatmens","1","895"
"auseinander","1","8387"
"ausgesandt","1","1444"
"aushauch","1","162"
"auskommen","1","2725"
"aussaat","1","2492"
"ausspreche","1","7166"
"aussprechen","1","3704"
"auszog","1","9785"
"auszustrahlen","1","8075"
"bade","1","64"
"bambuswaldund","1","2770"
"banane","1","9545"
"bananenschale","1","1589"
"bannte","1","5086"
"bart","1","2444"
"bast","1","1654"
"baten","1","6242"
"befahl","1","5098"
"befahlen","1","5142"
"befallenen","1","4275"
"beflissenen","1","3732"
"befreites","1","9448"
"beföhle","1","9962"
"begatten","1","9599"
"begehre","1","5214"
"beginne","1","3929"
"beginnend","1","2735"
"begleiter","1","419"
"begleitet","1","8130"
"begleitschaft","1","2368"
"beglücken","1","582"
"begnügt","1","638"
"begrüßenden","1","253"
"begrüßte","1","6797"
"begänne","1","2875"
"bein","1","804"
"beispiele","1","6210"
"bekamen","1","5585"
"belehrt","1","2757"
"belehrung","1","1282"
"bemächtigten","1","5133"
"bemühen","1","5917"
"bemühungen","1","3076"
"bereiten","1","6283"
"bereitschaft","1","4898"
"berge","1","9365"
"berichtet","1","4373"
"berufung","1","335"
"beruhigen","1","2738"
"berührte","1","2195"
"bescheiden","1","5787"
"bescheidenheit","1","5007"
"beschenkt","1","7941"
"beschäftigt","1","8274"
"besitzlos","1","4168"
"besorgnis","1","1959"
"besser","1","7626"
"bessere","1","7518"
"besseres","1","4965"
"besteht","1","4950"
"bestimmen","1","2493"
"bestimmt","1","9424"
"beständiges","1","5574"
"betrachtet","1","9422"
"betrachtete","1","9478"
"betrachteten","1","5780"
"betäubungen","1","3676"
"beugten","1","4186"
"bewahrt","1","1015"
"bewegt","1","1798"
"bewegungen","1","310"
"beweinen","1","2478"
"bewundern","1","1086"
"bewußtsein","1","810"
"bewährt","1","4095"
"bezaubern","1","5198"
"bezaubert","1","9316"
"bezauberung","1","5128"
"bezwang","1","2285"
"beängstigen","1","3967"
"bisheriges","1","8002"
"bittend","1","5327"
"bittenden","1","5255"
"bitter","1","2529"
"blauen","1","9344"
"blickt","1","7859"
"blieben","1","5329"
"blitzend","1","9617"
"bloß","1","1037"
"bloßen","1","1954"
"blume","1","9502"
"blumen","1","9355"
"blutigen","1","1465"
"blähte","1","2814"
"bläulichen","1","464"
"bobaume","1","9983"
"boot","1","9342"
"booten","1","29"
"boten","1","2366"
"botenruf","1","4450"
"brachte","1","4501"
"brahmanenstandes","1","3991"
"brahmanensöhne","1","7376"
"brahmanensöhnen","1","4481"
"brahmanentöchter","1","262"
"brauchte","1","5031"
"brauchten","1","5541"
"brennenden","1","2685"
"bringe","1","4400"
"bräunte","1","57"
"buddhaes","1","6230"
"buddhalehre","1","5968"
"buddhas","1","6716"
"bäume","1","9348"
"bäumen","1","5636"
"böse","1","7022"
"bösen","1","4235"
"böser","1","357"
"böses","1","7461"
"büchern","1","1150"
"chandogyaupanishad","1","1229"
"dachten","1","3549"
"dadurch","1","8060"
"dafür","1","9899"
"dagewesen","1","9385"
"daheimsein","1","1049"
"dahingestellt","1","7033"
"damals","1","9739"
"damit","1","3873"
"dank","1","5537"
"dankend","1","5162"
"dargestellt","1","6981"
"darin","1","4951"
"darreicht","1","5511"
"darzubringen","1","752"
"darüber","1","7217"
"dasselbe","1","3349"
"denke","1","3977"
"denkend","1","1436"
"denkenden","1","8648"
"dennoch","1","7093"
"denselben","1","3075"
"dichtung","1","2"
"dickicht","1","7227"
"diener","1","422"
"dieselben","1","3071"
"dingen","1","8710"
"dorf","1","4587"
"dorfe","1","3496"
"dorngerank","1","2682"
"dorrenden","1","2432"
"dringlich","1","9630"
"dritter","1","5977"
"duft","1","1495"
"duftende","1","4315"
"dummes","1","364"
"durchbrechung","1","7145"
"durchdrungen","1","9427"
"durchlief","1","4309"
"durchläuft","1","4285"
"durchströmte","1","8439"
"durstender","1","1144"
"dursts","1","2961"
"dürre","1","1455"
"dürren","1","2363"
"dürstender","1","1132"
"edel","1","1092"
"edler","1","4455"
"ehrfurcht","1","6796"
"ehrwürdigkeit","1","3989"
"ehrwürdigste","1","5359"
"ehrwürdigster","1","6931"
"eifrig","1","6332"
"eigentlich","1","9743"
"eigentum","1","6607"
"einatmens","1","893"
"einfach","1","9483"
"einfacher","1","3192"
"eingegraben","1","7816"
"eingehe","1","969"
"eingehen","1","404"
"eingeschlummert","1","3348"
"einhauch","1","152"
"einheitliche","1","7152"
"einige","1","3313"
"einnehmenwas","1","6082"
"eins","1","185"
"einsamkeit","1","1474"
"einschlagen","1","4742"
"einsicht","1","8952"
"einsiedler","1","9159"
"einwand","1","7165"
"einziges","1","2543"
"eisig","1","2445"
"eiter","1","2693"
"elenden","1","3242"
"eltern","1","6603"
"empfand","1","3063"
"empfindungen","1","8063"
"entfernt","1","3467"
"entfloh","1","3020"
"enthalten","1","6069"
"enthielt","1","3755"
"enthäutet","1","2825"
"entleerten","1","2568"
"entschlüpfen","1","8477"
"entselbsteten","1","2574"
"entstehen","1","887"
"enttäuschung","1","2224"
"entweichen","1","3363"
"entzückt","1","5520"
"erbleichte","1","1534"
"erblickt","1","7001"
"erden","1","4020"
"erdfarbenen","1","2393"
"erfahren","1","5353"
"erfaßt","1","8324"
"erforderten","1","3088"
"erfreut","1","4899"
"ergebener","1","5277"
"ergebung","1","1617"
"erhabenerkeinem","1","7418"
"erhebt","1","4251"
"erinnern","1","4838"
"erinnert","1","4830"
"erinnerung","1","2883"
"erkannt","1","7499"
"erkannten","1","5895"
"erkenntnissen","1","8065"
"erklären","1","7281"
"erlauben","1","1599"
"erlauschen","1","9949"
"erlegen","1","5129"
"erleiden","1","2953"
"erleuchtete","1","5691"
"erleuchteten","1","7453"
"erloschene","1","1456"
"erlöst","1","7722"
"erreichte","1","4120"
"erschaffung","1","883"
"erscheinen","1","3171"
"erscheinungswelt","1","8644"
"erschien","1","2056"
"erschlossen","1","4925"
"erscholl","1","4464"
"erschrak","1","5035"
"erschreckende","1","3702"
"erstarrten","1","2312"
"erstenmal","1","8618"
"erster","1","6"
"ertragen","1","4436"
"erwachende","1","8599"
"erwachender","1","1605"
"erwachens","1","9260"
"erwachter","1","8864"
"erwecken","1","3970"
"erwählt","1","6428"
"erzählungen","1","5294"
"ewiges","1","771"
"ewigkeit","1","2874"
"falke","1","48"
"fangen","1","9832"
"fast","1","2749"
"fauler","1","345"
"faßte","1","6809"
"feigenbaumes","1","37"
"feigengartens","1","461"
"feinde","1","4388"
"feine","1","1102"
"fels","1","9498"
"felsen","1","9353"
"fern","1","7642"
"fernen","1","9326"
"fernes","1","1412"
"fernhin","1","2165"
"fernsten","1","9061"
"feurigen","1","328"
"fiel","1","2144"
"figur","1","1746"
"findest","1","2222"
"fing","1","5076"
"fingern","1","2433"
"fingers","1","6026"
"finsternis","1","1994"
"flackerten","1","2425"
"flatternd","1","9615"
"fliehen","1","8257"
"floh","1","9555"
"flusses","1","507"
"flußufer","1","62"
"flußufers","1","26"
"flüchtiger","1","9413"
"flüsse","1","9393"
"flüsterte","1","5049"
"folgerichtigkeit","1","7090"
"fort","1","6896"
"fortsetzenicht","1","7513"
"frage","1","6502"
"fraß","1","2786"
"frei","1","7846"
"freiwillige","1","2952"
"fremde","1","2891"
"fremder","1","7618"
"fremdes","1","7109"
"fremdlinge","1","1481"
"freuden","1","9573"
"freundlich","1","6583"
"freundlichkeit","1","7764"
"freundschaft","1","6614"
"freute","1","5436"
"friede","1","5860"
"frieren","1","9025"
"froren","1","2670"
"fröhlich","1","5797"
"frühe","1","1519"
"früheren","1","9403"
"frühesten","1","6711"
"fuhr","1","6894"
"fuhrleuten","1","3204"
"fuß","1","5827"
"fühlen","1","557"
"fülle","1","620"
"füllen","1","5259"
"fünfzehn","1","2407"
"fürchte","1","7705"
"fürwahr","1","1234"
"füße","1","5991"
"gaben","1","681"
"galt","1","9926"
"gang","1","304"
"gar","1","9741"
"geballt","1","9251"
"gebete","1","3985"
"geboren","1","8829"
"gebracht","1","4158"
"gebraucht","1","3868"
"geburt","1","9266"
"gedachtem","1","9873"
"gedachten","1","6062"
"gedankens","1","9830"
"gedankenwelt","1","9881"
"geduldig","1","6201"
"gedächtnis","1","7815"
"gedürstet","1","3806"
"gefild","1","2832"
"geflossen","1","508"
"gefunkelt","1","514"
"gefügt","1","6967"
"gefühl","1","8433"
"gefühlt","1","9051"
"gefüllte","1","5515"
"gegend","1","5291"
"geglaubt","1","4695"
"gegorene","1","3318"
"gegossen","1","626"
"gehaben","1","1095"
"gehaucht","1","537"
"gehe","1","2237"
"geheimen","1","9944"
"geheimnisvoll","1","7856"
"gehorchen","1","2117"
"gehorcht","1","2123"
"gehorsam","1","2370"
"gehst","1","2246"
"gehölz","1","6644"
"gehör","1","6920"
"gehörst","1","6597"
"gehüllt","1","1434"
"geiern","1","2824"
"geistesdurst","1","664"
"geistiger","1","9075"
"geistlichen","1","5646"
"gekannt","1","4727"
"gekauert","1","2329"
"gekleideten","1","2464"
"gekochtes","1","2404"
"gekostet","1","4893"
"gekümmert","1","876"
"gelbe","1","6742"
"gelber","1","5721"
"gelehrigen","1","199"
"gelehrsamkeit","1","4411"
"gelehrsamkeiten","1","9907"
"gelehrt","1","8210"
"gelehrter","1","6523"
"geliebten","1","391"
"gelungen","1","1031"
"gelähmt","1","5119"
"geläuterten","1","4042"
"gemachtund","1","6089"
"gemeiner","1","341"
"gemeinsam","1","2232"
"genannt","1","4137"
"genauer","1","5834"
"genießen","1","4933"
"genoß","1","1284"
"genug","1","5418"
"genächtigt","1","5621"
"genüge","1","4269"
"genügen","1","588"
"geordnet","1","9336"
"geraucht","1","531"
"gerauscht","1","9394"
"gerichtet","1","1414"
"geriet","1","5017"
"gering","1","998"
"gerippe","1","2827"
"geräuschlos","1","5597"
"gerüstet","1","5249"
"geschehens","1","7051"
"geschenk","1","5286"
"geschenkt","1","7968"
"geschienen","1","9391"
"geschlecht","1","4325"
"geschlechterfolgen","1","1010"
"geschmeckt","1","2850"
"geschmolzen","1","520"
"gesenkten","1","4079"
"gesenkter","1","5844"
"gesetz","1","7063"
"gespräches","1","9705"
"gestalt","1","5907"
"gestern","1","6830"
"gestillt","1","647"
"gestirn","1","9490"
"gesträuch","1","9362"
"gesummt","1","9397"
"gesunden","1","5814"
"geteilt","1","4117"
"getrennt","1","8291"
"geträufelt","1","544"
"gewillt","1","8381"
"gewohnt","1","5593"
"gewohnte","1","1373"
"gewohnten","1","6205"
"gewollt","1","6630"
"gewordenseine","1","6234"
"gewußt","1","9803"
"gezogen","1","1451"
"geäst","1","9584"
"gib","1","6692"
"gierigen","1","9589"
"glanz","1","170"
"glaubt","1","7958"
"glaubten","1","9194"
"gleichmut","1","7575"
"glied","1","6001"
"glänzte","1","6012"
"gläubige","1","5617"
"gläubigen","1","4333"
"glühenden","1","331"
"goldkäfer","1","9501"
"grobe","1","5032"
"grün","1","8579"
"grüßend","1","5169"
"gundert","1","9292"
"guten","1","4232"
"gutes","1","363"
"gäbe","1","4008"
"gärten","1","5654"
"götter","1","714"
"götteraber","1","677"
"götterunendlich","1","903"
"güte","1","6805"
"gütigen","1","7175"
"haare","1","2648"
"habedies","1","9775"
"habgieriger","1","348"
"habt","1","6262"
"hagere","1","1483"
"haines","1","5628"
"hains","1","467"
"halbem","1","7757"
"halbes","1","7808"
"handeln","1","2470"
"handwerker","1","9114"
"handwerkern","1","9119"
"harrte","1","2851"
"hasen","1","9034"
"hastigen","1","9633"
"hattest","1","8201"
"hauptes","1","4080"
"hauptsätze","1","6196"
"hauses","1","21"
"haustüren","1","5508"
"hecht","1","9606"
"heftige","1","1790"
"heilen","1","4277"
"heiliger","1","3160"
"heiligsten","1","8163"
"heilsam","1","3853"
"heilten","1","662"
"heischten","1","5583"
"heiterer","1","4178"
"heiß","1","1493"
"heiße","1","2423"
"helfer","1","4306"
"helle","1","7762"
"helles","1","1896"
"herab","1","5123"
"herabhängenden","1","5857"
"heranwachsen","1","211"
"heraus","1","157"
"herbeiströmen","1","5426"
"herde","1","368"
"hermann","1","4"
"herrscht","1","4248"
"herzensangst","1","668"
"herzschlag","1","2737"
"herzu","1","6273"
"herüber","1","1602"
"herüberzauberte","1","1055"
"hesse","1","5"
"hielt","1","4570"
"hinab","1","8042"
"hinaus","1","2274"
"hindurch","1","6998"
"hingegangen","1","1377"
"hingen","1","5122"
"hingewiesen","1","5297"
"hinterlistiger","1","358"
"hinwegführten","1","3006"
"hinwegruft","1","4958"
"hitze","1","6104"
"hoch","1","9582"
"holde","1","299"
"holten","1","2357"
"holz","1","2900"
"honig","1","995"
"horchten","1","4470"
"hunderten","1","5760"
"hunderttausenden","1","7491"
"hunger","1","3236"
"hungers","1","2959"
"hungerte","1","2788"
"huren","1","2479"
"hurenviertels","1","3199"
"hyänen","1","2820"
"hände","1","3954"
"hätten","1","627"
"häßlich","1","7246"
"höchst","1","1083"
"höchsten","1","8158"
"höchstes","1","737"
"höflich","1","6888"
"höflichen","1","7178"
"höflichkeit","1","5005"
"hörenden","1","6221"
"hörenobschon","1","4880"
"hübsche","1","9916"
"hüte","1","7794"
"hütte","1","2324"
"ichseins","1","3286"
"ihrem","1","3361"
"ihres","1","6753"
"immerhin","1","4761"
"indiens","1","4469"
"indische","1","1"
"inhalt","1","5966"
"inmitten","1","8595"
"inne","1","9730"
"innern","1","178"
"innig","1","3731"
"irgendwelche","1","8525"
"irgendwo","1","8707"
"irrtümer","1","7588"
"istaber","1","7043"
"jagd","1","2473"
"jagen","1","9609"
"jagende","1","9638"
"jahrelang","1","9042"
"jahren","1","8919"
"japan","1","9296"
"jedermann","1","4287"
"jenen","1","3241"
"jung","1","1461"
"junge","1","47"
"jäger","1","2857"
"jüngeren","1","5010"
"jüngerschaft","1","6311"
"kamala","1","9298"
"kasteiung","1","4417"
"kauerte","1","2679"
"kaufherr","1","5274"
"kehre","1","2226"
"kehrt","1","3406"
"kehrten","1","6056"
"kenne","1","4413"
"kennen","1","8540"
"kennst","1","5463"
"kern","1","8396"
"kinde","1","5815"
"kinder","1","2498"
"kinderhaft","1","9485"
"kinn","1","2440"
"klagend","1","6580"
"klardenkenden","1","172"
"klare","1","7469"
"klaren","1","7180"
"kleid","1","9193"
"klein","1","4861"
"kleiner","1","3799"
"kleines","1","9028"
"klugheit","1","7799"
"knabenspielen","1","83"
"kneipe","1","3197"
"knien","1","2155"
"kokosmilch","1","3319"
"kommt","1","8355"
"konnten","1","8216"
"kopf","1","4101"
"kraft","1","9626"
"krampf","1","9264"
"krank","1","4429"
"kranke","1","2485"
"kreis","1","3572"
"kreisewir","1","3541"
"kreislaufes","1","3062"
"kreislaufs","1","2849"
"kristall","1","7009"
"kräuter","1","9354"
"kundige","1","1046"
"kundiger","1","4264"
"kunstfertigkeiten","1","3679"
"kurzes","1","3280"
"kälte","1","9240"
"käme","1","7720"
"königsauge","1","277"
"körpers","1","3262"
"kühlte","1","9534"
"kühn","1","6890"
"künste","1","4711"
"künsten","1","5228"
"kürbis","1","9543"
"küsse","1","2239"
"lachte","1","4798"
"lagaber","1","1016"
"lagen","1","6646"
"lande","1","4245"
"langsamer","1","8180"
"lassen","1","8478"
"lauschte","1","5521"
"laut","1","5029"
"lautete","1","8338"
"lebe","1","8283"
"lebendig","1","6111"
"lebenund","1","4439"
"leerdenken","1","2974"
"leerer","1","354"
"lehrbare","1","9766"
"lehrend","1","4159"
"lehrten","1","812"
"leibe","1","6991"
"leichnam","1","2806"
"leide","1","3785"
"leidlose","1","2873"
"leidtragende","1","2475"
"leisen","1","3758"
"lesen","1","8781"
"leuchtenden","1","273"
"leuchtet","1","7072"
"lichten","1","59"
"lieben","1","2495"
"liebende","1","2494"
"lieblich","1","9507"
"liebster","1","5266"
"liebt","1","8762"
"liebten","1","429"
"liegt","1","8999"
"ließ","1","8033"
"lobpreisung","1","4237"
"log","1","2509"
"lohnte","1","837"
"los","1","6761"
"losgeschnellte","1","1554"
"loskommen","1","8238"
"lud","1","4591"
"lächelte","1","2344"
"ländern","1","4468"
"lösten","1","666"
"lückenlos","1","7005"
"lüge","1","2515"
"lüste","1","7640"
"macht","1","3215"
"machtlos","1","5124"
"magadha","1","4607"
"magisch","1","8593"
"magischen","1","987"
"mahlzeit","1","6081"
"mahnte","1","5532"
"mal","1","3486"
"mancherlei","1","4123"
"mangobäume","1","6098"
"mangohain","1","80"
"mangowald","1","479"
"maras","1","8628"
"maya","1","8635"
"meditation","1","2971"
"meditieren","1","3642"
"meere","1","9563"
"mehrmals","1","5149"
"mehrzahl","1","5664"
"meiden","1","7463"
"meinst","1","3587"
"meinung","1","7270"
"meiste","1","612"
"meisten","1","321"
"mild","1","4454"
"mildtätige","1","5349"
"miteinander","1","3081"
"mitleidloser","1","1503"
"mittag","1","2077"
"mittagsmahlzeit","1","5679"
"mitteilen","1","7435"
"mißtrauisch","1","4848"
"mondlicht","1","1958"
"mondschein","1","3044"
"morgendlichen","1","9361"
"murmelnd","1","1350"
"murmelte","1","4029"
"mut","1","6812"
"mutterleibe","1","3473"
"männer","1","1457"
"märchen","1","4199"
"mästete","1","9908"
"möget","1","5411"
"möglich","1","4907"
"müdigkeit","1","2963"
"müssen","1","8173"
"mütter","1","2496"
"nachahmen","1","5915"
"nachdenken","1","7218"
"nachfolge","1","7741"
"nachfolger","1","6715"
"nachgedacht","1","7203"
"nachsinnend","1","4041"
"nachtruhe","1","6322"
"nachts","1","9331"
"nachtstunde","1","2034"
"nackt","1","1468"
"nahen","1","9522"
"nahezu","1","1467"
"nashornvogel","1","3858"
"natürlich","1","8911"
"neben","1","3064"
"nehme","1","6296"
"neigte","1","5042"
"nennen","1","3901"
"nennt","1","8748"
"netz","1","9828"
"neu","1","8872"
"neuer","1","8335"
"neugeborener","1","8866"
"neugierig","1","5943"
"neugierige","1","5619"
"neulinge","1","6732"
"niedergesessen","1","9984"
"niedersetzte","1","1342"
"niedersitzen","1","234"
"nirgends","1","6956"
"novizen","1","6775"
"nächte","1","9552"
"nägel","1","2437"
"nähren","1","552"
"nämlich","1","4847"
"oben","1","3570"
"obergewand","1","1897"
"oftmals","1","7546"
"ohr","1","5047"
"ohren","1","4228"
"opferbeamter","1","346"
"opfergesänge","1","858"
"opfernd","1","476"
"ordnungen","1","897"
"orte","1","5390"
"palmenstrande","1","9327"
"pest","1","4247"
"pfeiles","1","1364"
"pfeilschnell","1","1606"
"pflegte","1","5692"
"pflichten","1","6752"
"pilgernde","1","1452"
"pilgerschaft","1","6877"
"prajapati","1","695"
"quelle","1","4444"
"quellen","1","1142"
"rad","1","4153"
"rast","1","3403"
"rastlose","1","501"
"raum","1","5419"
"rausch","1","2847"
"recht","1","7330"
"rechten","1","3521"
"rechtschaffen","1","7458"
"redekampf","1","117"
"redete","1","5028"
"redner","1","355"
"regen","1","3049"
"regenbogen","1","9352"
"regenzeit","1","2645"
"reich","1","1486"
"reiche","1","5273"
"reichte","1","5346"
"reihergekrächz","1","2791"
"reiherhunger","1","2789"
"reihertod","1","2793"
"reinen","1","1079"
"reinigung","1","1169"
"reisewunsch","1","5157"
"reisfelde","1","9377"
"richtigen","1","5389"
"riete","1","9971"
"rigveda","1","536"
"rings","1","9223"
"riß","1","6758"
"rolland","1","9"
"romain","1","8"
"rosigen","1","458"
"rufen","1","5576"
"ruhelosigkeit","1","525"
"ruhen","1","8048"
"ruhigen","1","4974"
"ruhten","1","5601"
"rätsel","1","8280"
"rätselhaft","1","8567"
"rätselvoll","1","8591"
"rückkehr","1","3032"
"rührte","1","255"
"sakya","1","4327"
"sakyamuni","1","4500"
"salwaldes","1","33"
"samanaregeln","1","2765"
"samanawege","1","3793"
"samaveda","1","938"
"sandufer","1","2799"
"sanft","1","5869"
"sanfter","1","6186"
"sangen","1","9370"
"satt","1","6088"
"satyamwahrlich","1","1240"
"saßen","1","5637"
"schafbock","1","9594"
"schakale","1","1484"
"schambinde","1","2390"
"scharen","1","9622"
"schattigen","1","5653"
"schatz","1","9754"
"schauder","1","9258"
"schauderte","1","9099"
"schein","1","2141"
"scheinbar","1","7713"
"schenkeln","1","2420"
"schenken","1","6921"
"schenkte","1","2376"
"scherz","1","3218"
"schicksal","1","1574"
"schienbeinen","1","1955"
"schiff","1","9567"
"schilfsee","1","9604"
"schimmerte","1","1894"
"schimpansen","1","3861"
"schimpfworte","1","5033"
"schlagen","1","6992"
"schlanken","1","245"
"schlichten","1","5718"
"schläge","1","2741"
"schlüsse","1","9867"
"schmalen","1","280"
"schmerzen","1","3331"
"schmerzes","1","2957"
"schmerzte","1","4624"
"schmetterling","1","9504"
"schmähung","1","4240"
"schneller","1","3190"
"schnellten","1","9613"
"schreitenden","1","247"
"schreitet","1","7861"
"schrift","1","8732"
"schwand","1","2417"
"schwang","1","2916"
"schwankte","1","2276"
"schwarzen","1","77"
"schwebte","1","6216"
"schweigen","1","1750"
"schwiegen","1","2673"
"schwimmend","1","9345"
"schwären","1","2691"
"schälen","1","8389"
"schätzen","1","9570"
"schöne","1","42"
"schönen","1","242"
"schönheit","1","2522"
"schüchterne","1","6291"
"schüttelte","1","4099"
"segenswunsch","1","6543"
"segnende","1","5151"
"sehnsucht","1","4475"
"seid","1","5392"
"seite","1","2278"
"selbstverständlich","1","8913"
"seliger","1","4181"
"selten","1","3077"
"seltsam","1","8565"
"senkrechten","1","2622"
"setzte","1","5825"
"setzten","1","1330"
"seuche","1","4274"
"sichelmond","1","9339"
"sichtbaren","1","7777"
"sieaber","1","906"
"silbern","1","9375"
"sinnes","1","2976"
"sinnlose","1","8639"
"sinnvolles","1","735"
"sitzend","1","462"
"sog","1","9088"
"sohnes","1","2271"
"solches","1","1242"
"sollen","1","3244"
"sonnenbrand","1","2623"
"sonnenschein","1","3041"
"sonst","1","9084"
"sparen","1","2720"
"speerträger","1","425"
"spiegelte","1","1956"
"spiel","1","9845"
"spielen","1","9933"
"spinnen","1","9877"
"spirale","1","3575"
"spricht","1","4289"
"springen","1","4446"
"sprossen","1","1576"
"spräche","1","3250"
"spöttischen","1","3764"
"stach","1","2708"
"stammelnd","1","5154"
"standen","1","1407"
"starb","1","2792"
"starken","1","240"
"starrte","1","8585"
"staub","1","2829"
"staubigen","1","1463"
"stehe","1","1673"
"stehend","1","4081"
"stehenden","1","2010"
"stelle","1","7096"
"sterbens","1","7070"
"sternen","1","511"
"sternenschein","1","1991"
"sternhimmel","1","6227"
"stillen","1","584"
"stillenund","1","2499"
"stiller","1","1497"
"stilles","1","5793"
"stimmen","1","9945"
"stirnaber","1","1109"
"strahlen","1","517"
"strahlenden","1","408"
"strahlte","1","7576"
"strande","1","2813"
"straße","1","2384"
"strengen","1","3721"
"strom","1","4362"
"strome","1","7060"
"struppige","1","2443"
"strömt","1","7102"
"studieren","1","8987"
"studiert","1","8760"
"stufe","1","3577"
"stufen","1","3427"
"stumpf","1","8722"
"stundenlang","1","2992"
"städte","1","4483"
"städten","1","4209"
"suche","1","5305"
"suchenden","1","3728"
"suchender","1","1130"
"sähe","1","8550"
"sättigen","1","586"
"sühnebad","1","475"
"süß","1","4418"
"tagelang","1","2994"
"tagen","1","5488"
"tagesanbruch","1","1630"
"tageslicht","1","2309"
"taten","1","901"
"taub","1","8720"
"taublitz","1","9359"
"tausendfalt","1","9380"
"teilen","1","9211"
"teilte","1","9128"
"teilwilhelm","1","9291"
"teuerster","1","4738"
"teufel","1","4380"
"tiefem","1","8467"
"tiefschattigen","1","478"
"tiefschlaf","1","965"
"tiefste","1","1034"
"tiere","1","9350"
"tode","1","7384"
"toten","1","2477"
"traf","1","9989"
"tragend","1","5728"
"traten","1","6237"
"traum","1","2554"
"traurig","1","5799"
"traurigen","1","3761"
"treffen","1","1370"
"treiben","1","4715"
"trennen","1","8172"
"trennte","1","8011"
"trete","1","6875"
"treten","1","4598"
"tretet","1","6271"
"trieb","1","2597"
"trinken","1","1145"
"trinkt","1","3316"
"tritt","1","1064"
"trockene","1","1588"
"trockne","1","2442"
"troff","1","2649"
"tropfte","1","2687"
"trostvoll","1","4453"
"trugen","1","9191"
"trunkenbold","1","3391"
"trägt","1","5519"
"träumen","1","8438"
"tröstungen","1","3673"
"trügerisch","1","7715"
"trügerischer","1","9415"
"trümmern","1","8508"
"täglich","1","1246"
"täglichen","1","474"
"täuschte","1","2517"
"tönen","1","4452"
"töricht","1","7249"
"töten","1","8502"
"tür","1","5325"
"ufer","1","9495"
"umarmte","1","6762"
"umgab","1","9169"
"umschlossensein","1","7053"
"umweg","1","1210"
"umwegen","1","4126"
"unablenkbar","1","1549"
"unantastbaren","1","5879"
"unaussprechlich","1","4048"
"unaussprechliche","1","9763"
"unbekannt","1","8351"
"unbekannten","1","8393"
"unbewegt","1","7172"
"unbewegten","1","1542"
"undso","1","7413"
"uneingestandene","1","2527"
"unempfindsamkeit","1","3234"
"unentrinnbar","1","3033"
"unentwegt","1","1369"
"unerforschliches","1","7578"
"unerschütterten","1","7761"
"ungeduld","1","6500"
"ungeduldig","1","9276"
"ungeheure","1","1003"
"ungenähten","1","2394"
"ungestüm","1","9637"
"unglaubliche","1","4369"
"ungläubigen","1","4390"
"unsinnigkeit","1","3297"
"untadelige","1","1160"
"unterbrochen","1","7097"
"unterbrochene","1","6957"
"untergehen","1","9328"
"unterm","1","9564"
"unterscheiden","1","5764"
"unterschlupf","1","5599"
"untertan","1","723"
"unterwarf","1","5094"
"unterweisen","1","6756"
"unterzog","1","3073"
"unvermeidlich","1","3029"
"unwiderleglich","1","6980"
"unwille","1","1797"
"unzerstörbar","1","184"
"unzerstörbaren","1","782"
"unzufriedenheit","1","548"
"unzählbaren","1","1009"
"unzähligen","1","5424"
"unähnlich","1","5817"
"upanishad","1","4039"
"upanishaden","1","936"
"ursache","1","8358"
"vedas","1","3826"
"verabschiedete","1","7772"
"verachte","1","4406"
"verachten","1","9937"
"verachtung","1","2456"
"verborgenen","1","5809"
"verbringen","1","5416"
"verdanken","1","4949"
"verehrer","1","5278"
"verehrt","1","6037"
"verehrten","1","11"
"verehrter","1","6370"
"verehrung","1","751"
"verfolgen","1","9597"
"verführer","1","4398"
"vergiß","1","6586"
"vergrößerten","1","2428"
"vergänglich","1","724"
"vergönnt","1","6836"
"verharrte","1","2995"
"verirrung","1","1212"
"verkündet","1","4751"
"verkündigt","1","6270"
"verlangt","1","1704"
"verlangte","1","5107"
"verlegenheit","1","5039"
"verlocken","1","7915"
"verlockt","1","7922"
"verlorenste","1","9158"
"vermindern","1","2744"
"vermuteten","1","8788"
"vernahm","1","6398"
"verneigungen","1","5164"
"vernichtet","1","9429"
"versammelte","1","6115"
"verschmäht","1","8653"
"verschwenden","1","1627"
"versengt","1","1472"
"versenkt","1","4047"
"versenktoder","1","5644"
"versenkungen","1","3453"
"versenkungsübung","1","1376"
"versprechungen","1","4456"
"verstecken","1","8262"
"versuchte","1","2283"
"verwandelt","1","9311"
"verwerfen","1","7257"
"verwest","1","2841"
"verweste","1","2817"
"verwesung","1","2528"
"verzagtheit","1","9242"
"verzeihen","1","7161"
"verächtlich","1","8645"
"veränderten","1","1747"
"vetter","1","9294"
"vier","1","6195"
"vollendeter","1","7079"
"vollführen","1","5139"
"vollkommene","1","6951"
"vollkommener","1","6132"
"vollzog","1","5150"
"voraus","1","8787"
"vorhaben","1","2128"
"vorhanden","1","8122"
"vorher","1","7114"
"vormaligen","1","4342"
"vormals","1","4552"
"vorn","1","8876"
"vorschrift","1","5835"
"vorstellungen","1","2979"
"vortrefflich","1","669"
"vorwurf","1","6341"
"vögel","1","9369"
"wachsein","1","1057"
"wahn","1","3410"
"wahrhaftig","1","6019"
"waldgebirge","1","9322"
"waldgewölbe","1","9580"
"waldschatten","1","9536"
"wandelnd","1","455"
"wandelnde","1","8728"
"wandelt","1","6275"
"wandern","1","9581"
"wanderschaft","1","7512"
"wanderten","1","1743"
"wangen","1","2422"
"warnen","1","7222"
"wartendes","1","624"
"waschend","1","470"
"wasserwirbeln","1","9634"
"wechselrede","1","1153"
"wegschmolz","1","9226"
"wegsterben","1","2563"
"weibern","1","2451"
"weiblos","1","4170"
"weil","1","9823"
"weile","1","2185"
"weilte","1","9446"
"weinen","1","6576"
"weit","1","3460"
"weitere","1","4936"
"weitergehen","1","5534"
"weiterlebte","1","7729"
"welch","1","5614"
"weltall","1","188"
"weltgesetz","1","7153"
"weltlust","1","4565"
"wendete","1","6325"
"weniger","1","8308"
"werdens","1","7067"
"werdest","1","4790"
"wert","1","2507"
"wesenhaft","1","8072"
"wesentlich","1","7042"
"wesentliche","1","3686"
"weswegen","1","7509"
"wichtige","1","926"
"wichtigste","1","923"
"wiederfand","1","3039"
"wiedergeburten","1","4155"
"wiederhole","1","6548"
"wiederholungen","1","6212"
"wiederkehren","1","6073"
"wies","1","6686"
"wilden","1","9588"
"wille","1","5118"
"willenlos","1","5093"
"willkommen","1","4491"
"wimmelnd","1","5660"
"wind","1","9373"
"wirkungen","1","6971"
"wissende","1","1115"
"wissensdurstigen","1","201"
"wissenwollen","1","3941"
"wisset","1","5401"
"wißbegierige","1","7279"
"wißbegieriger","1","7224"
"wobei","1","4803"
"wohlan","1","4872"
"wohne","1","973"
"wohnte","1","766"
"wohnten","1","1106"
"wolken","1","9351"
"wolle","1","6675"
"wollten","1","5026"
"wonach","1","9956"
"wonne","1","217"
"wortes","1","9723"
"wuchs","1","38"
"wuchsen","1","2434"
"wunderbare","1","974"
"wundersame","1","6838"
"wuschen","1","657"
"wählen","1","7684"
"wählst","1","6472"
"wärest","1","5200"
"wünsche","1","7834"
"würden","1","4191"
"würfelspielern","1","3206"
"yogaveda","1","8514"
"zagen","1","2025"
"zaubersprüchen","1","351"
"zehen","1","8444"
"zehntausend","1","384"
"zeigen","1","5057"
"zeigst","1","6959"
"zeigte","1","841"
"zeiten","1","9404"
"zerbrochen","1","7155"
"zerstäubt","1","2843"
"zerstörendem","1","1500"
"zerstückt","1","2821"
"ziege","1","9499"
"ziehe","1","4160"
"ziehen","1","9869"
"zielte","1","9466"
"zieren","1","4719"
"zisterne","1","9541"
"zittern","1","2164"
"zitterte","1","2157"
"zornige","1","1792"
"zuckte","1","2455"
"zuge","1","6773"
"zugehörig","1","9206"
"zugehörigkeit","1","9170"
"zugehört","1","7171"
"zuliebe","1","8790"
"zumal","1","933"
"zunge","1","8808"
"zungenspitze","1","1416"
"zurückgewendet","1","4566"
"zurückgezogen","1","6323"
"zurückkehre","1","8929"
"zurückziehen","1","6093"
"zurückzukehren","1","7641"
"zuteil","1","5309"
"zuvor","1","9249"
"zuweilen","1","3089"
"zwei","1","5363"
"zweifel","1","4530"
"zweifeln","1","4293"
"zweiten","1","1807"
"zwischen","1","1420"
"zählen","1","3604"
"zählte","1","9139"
"zähnen","1","1422"
"zögern","1","6383"
"zürnen","1","7307"
"älteste","1","4537"
"ärgeren","1","3937"
"ärzte","1","2482"
"üben","1","3636"
"überhört","1","6544"
"überschätzen","1","9940"
"überwand","1","2921"
"überwindung","1","7132"
"überwurf","1","2395"
"übrig","1","4085"
"abhängig","2","7013"
"allzu","2","6889"
"andere","2","2982"
"anhalten","2","3228"
"antwort","2","1401"
"antwortete","2","3127"
"atems","2","3230"
"atemzug","2","8468"
"atmete","2","5868"
"aufenthalt","2","5267"
"aufmerksam","2","5744"
"aufnahme","2","6244"
"aufs","2","6878"
"aß","2","2397"
"banyanenbaum","2","1319"
"bat","2","6306"
"begegnete","2","2452"
"beginnt","2","1564"
"beine","2","2659"
"beinen","2","246"
"beliebt","2","4755"
"bereit","2","1343"
"berichten","2","4428"
"bettelgang","2","3114"
"betteln","2","3105"
"bewiesen","2","6948"
"bewundert","2","3155"
"bitte","2","1805"
"bleibt","2","3558"
"blickten","2","2166"
"blut","2","2689"
"boden","2","7571"
"bogen","2","1355"
"brannte","2","2712"
"buch","2","8772"
"buchstabe","2","8764"
"buchstaben","2","8746"
"bunt","2","8561"
"bücher","2","867"
"büßer","2","1028"
"dannen","2","5171"
"darauf","2","4971"
"daselbst","2","5421"
"dazu","2","9423"
"denen","2","1029"
"denkende","2","8183"
"denkst","2","3107"
"deren","2","1281"
"dieselbe","2","3300"
"diesseits","2","9450"
"drang","2","4220"
"drei","2","1454"
"dringen","2","822"
"durchs","2","1982"
"dörfer","2","3096"
"ehrwürdig","2","4025"
"eigen","2","1203"
"einschlafen","2","2097"
"einzig","2","5897"
"eitler","2","353"
"empfindung","2","8013"
"empor","2","4203"
"entgegen","2","1728"
"entschluß","2","1547"
"erfüllte","2","8017"
"erkennen","2","5919"
"erlaubnis","2","1693"
"erlernte","2","9861"
"erschaffen","2","699"
"erscheinungen","2","8801"
"erst","2","8828"
"erstaunen","2","5613"
"erste","2","2140"
"erwachend","2","2907"
"erwiderten","2","5161"
"ewige","2","6965"
"ewigen","2","1304"
"fanden","2","5594"
"fasten","2","3265"
"fastete","2","2406"
"feind","2","1478"
"ferne","2","6850"
"fest","2","8088"
"fester","2","6188"
"finde","2","3457"
"finger","2","5853"
"fische","2","2787"
"fleisch","2","802"
"flog","2","2768"
"folgen","2","389"
"folgten","2","5776"
"fremdling","2","4490"
"frierende","2","2653"
"frommen","2","3834"
"fror","2","9015"
"fühlt","2","3321"
"fühlten","2","4474"
"führte","2","3009"
"gassen","2","267"
"geben","2","4967"
"gebirg","2","2783"
"geblieben","2","5203"
"gebärde","2","6023"
"gebärden","2","484"
"gedrungen","2","4517"
"gefäß","2","625"
"gegangen","2","3782"
"geist","2","325"
"geistes","2","173"
"gelebt","2","4113"
"gelegen","2","7241"
"geliebt","2","487"
"gelöscht","2","1270"
"gemacht","2","5287"
"gerne","2","5347"
"gesang","2","85"
"geschehen","2","7441"
"geschrieben","2","955"
"gestiegen","2","3429"
"gestorben","2","2590"
"getan","2","4377"
"gewidmet","2","13"
"gewiß","2","927"
"gewährung","2","6827"
"gezeigt","2","5713"
"gezweifelt","2","7350"
"glaubst","2","7616"
"glaubte","2","5948"
"glieder","2","472"
"glück","2","684"
"glühend","2","2624"
"gott","2","399"
"groß","2","2052"
"große","2","2616"
"großen","2","203"
"großer","2","3139"
"göttliche","2","8406"
"göttlichen","2","8685"
"haupt","2","5985"
"haut","2","2686"
"heimatlos","2","4169"
"hell","2","6213"
"herabhängende","2","5848"
"herberge","2","3310"
"herkunft","2","6146"
"herrliche","2","945"
"herrlichen","2","393"
"hoffnung","2","4477"
"hohe","2","334"
"händler","2","349"
"höchste","2","4334"
"höher","2","3428"
"hörten","2","6116"
"hüften","2","281"
"ihrer","2","609"
"innen","2","5804"
"jedesmal","2","2906"
"jener","2","4549"
"jenseits","2","9440"
"jugend","2","6768"
"jünger","2","6079"
"jüngern","2","4163"
"kamen","2","498"
"kaum","2","5542"
"keiner","2","1289"
"kette","2","6958"
"kind","2","3471"
"kindlich","2","7854"
"klang","2","4200"
"komm","2","1314"
"kommen","2","4870"
"kreise","2","3566"
"kunst","2","124"
"kurz","2","9546"
"kutte","2","5722"
"körper","2","3362"
"lehrern","2","4867"
"lehrt","2","7298"
"leidens","2","6148"
"leidenschaft","2","1498"
"liest","2","8733"
"läge","2","8841"
"machen","2","4301"
"machte","2","5088"
"mag","2","3601"
"manche","2","3576"
"mantel","2","4173"
"matte","2","1652"
"meinen","2","3450"
"meiner","2","7602"
"mensch","2","961"
"mitgeteilt","2","616"
"mißtrauen","2","9421"
"mund","2","2454"
"männern","2","3713"
"möchten","2","4640"
"mönch","2","5748"
"mühen","2","1170"
"nahmen","2","5334"
"name","2","1236"
"namen","2","1397"
"nannte","2","8797"
"nehmen","2","6530"
"neue","2","6879"
"nichtich","2","2998"
"nickte","2","6824"
"nieder","2","1332"
"niederschlagen","2","7896"
"nähern","2","3523"
"ochsentreiber","2","3307"
"offen","2","2578"
"pflegen","2","1324"
"pilgernden","2","2336"
"plötzlich","2","8839"
"rein","2","990"
"reiswein","2","3315"
"richtig","2","731"
"sagst","2","3375"
"sagten","2","4392"
"sammeln","2","5685"
"sann","2","8018"
"savathi","2","5236"
"schaf","2","365"
"schakal","2","2796"
"schalen","2","3314"
"schar","2","5616"
"schleier","2","8633"
"schlug","2","769"
"schlüpfte","2","2803"
"schmeckte","2","2530"
"schuf","2","434"
"segel","2","9560"
"selber","2","3254"
"sichtbarkeit","2","9442"
"siebzig","2","3620"
"sieh","2","4721"
"sitzen","2","7826"
"solcher","2","378"
"spotten","2","4758"
"sprich","2","4661"
"stande","2","9149"
"standes","2","6754"
"steht","2","6335"
"stein","2","2898"
"stellte","2","8087"
"stern","2","9233"
"stunden","2","1980"
"sucht","2","2594"
"sünde","2","659"
"tauchte","2","4356"
"tausendmal","2","2987"
"tiefes","2","8031"
"ton","2","4805"
"toter","2","2795"
"trachten","2","9954"
"trauer","2","3752"
"trinker","2","3395"
"trüben","2","2846"
"täuschen","2","3684"
"täuschung","2","8750"
"unruhe","2","1898"
"unverwelklichen","2","5872"
"unwillig","2","1835"
"urquell","2","1189"
"urteilen","2","7672"
"verachtet","2","8740"
"verlangen","2","1722"
"verloren","2","8069"
"verneigte","2","2288"
"verse","2","929"
"versen","2","534"
"versunken","2","1404"
"verweilen","2","3366"
"vielfalt","2","8642"
"vogel","2","6087"
"vollendete","2","7186"
"vollendeten","2","4659"
"vollkommen","2","6129"
"vollkommenen","2","307"
"vollkommenheit","2","5862"
"vorzunehmen","2","1393"
"vorüber","2","8816"
"völlig","2","6493"
"wahrheit","2","6013"
"wandelten","2","5629"
"wartest","2","1825"
"waschung","2","1390"
"waschungen","2","68"
"weges","2","5786"
"weilt","2","5357"
"weise","2","1099"
"welchen","2","5271"
"wem","2","743"
"wenige","2","2747"
"wertlose","2","8753"
"wertvoll","2","909"
"wesens","2","180"
"wessen","2","9207"
"wiederholte","2","1348"
"wirklich","2","694"
"wohin","2","2244"
"wohlleben","2","4404"
"worauf","2","1824"
"worden","2","4706"
"worten","2","988"
"wunder","2","2577"
"wurden","2","2373"
"zauber","2","4424"
"zeichen","2","8744"
"zerstücken","2","8385"
"ziele","2","3125"
"ziemt","2","1786"
"zog","2","5667"
"zogen","2","1778"
"zorn","2","2015"
"zufall","2","7012"
"zufrieden","2","5230"
"zusammen","2","49"
"zusammenhang","2","7004"
"zwanzig","2","1335"
"zweien","2","1979"
"zweiter","2","5975"
"ältester","2","3591"
"übung","2","3147"
"all","3","8606"
"aller","3","488"
"also","3","727"
"alte","3","5109"
"angst","3","1614"
"anstand","3","251"
"asket","3","4553"
"bach","3","9356"
"bald","3","3766"
"begonnen","3","547"
"beraubt","3","7924"
"beste","3","614"
"bleich","3","1585"
"blicken","3","5084"
"bliebe","3","3981"
"brust","3","222"
"brüder","3","3501"
"dabei","3","8414"
"dahingehen","3","8022"
"dienst","3","128"
"ding","3","3896"
"dinge","3","7092"
"dorthin","3","820"
"eben","3","8056"
"ehe","3","1748"
"ehrwürdigen","3","1084"
"einmal","3","2399"
"einstmals","3","397"
"einzige","3","708"
"einzigen","3","756"
"enthält","3","7449"
"entrinnen","3","2865"
"erinnerte","3","4339"
"erlebt","3","7485"
"erschienen","3","4135"
"erwachen","3","2605"
"erwachte","3","6389"
"fehler","3","6677"
"fragen","3","3812"
"fragte","3","1827"
"frau","3","5341"
"fremd","3","1476"
"freundes","3","573"
"fürsten","3","213"
"ganze","3","951"
"garten","3","5405"
"gedacht","3","4685"
"gedanke","3","7416"
"geht","3","1245"
"gehörte","3","9120"
"gelb","3","8576"
"gelehrten","3","98"
"gemeinschaft","3","5557"
"gerücht","3","4130"
"gesammelt","3","989"
"gesammelter","3","164"
"gespräch","3","100"
"gestaltungen","3","715"
"gingen","3","1326"
"glauben","3","3932"
"gleich","3","5319"
"heilig","3","4021"
"heiligkeit","3","3983"
"heute","3","4583"
"himmlische","3","1250"
"hinweg","3","2937"
"hohen","3","327"
"hörte","3","1539"
"jede","3","2593"
"jenes","3","3895"
"jungen","3","261"
"kannte","3","1072"
"keinen","3","3936"
"kleine","3","1877"
"konnte","3","8244"
"land","3","4167"
"lang","3","2435"
"langen","3","3358"
"langsamen","3","8021"
"lebens","3","3299"
"legte","3","1849"
"lehrte","3","6139"
"lust","3","441"
"male","3","1808"
"meines","3","7878"
"meinungen","3","7229"
"möge","3","1723"
"müde","3","2088"
"nahe","3","1255"
"nahrung","3","3098"
"neuen","3","2764"
"neues","3","5953"
"niemals","3","1260"
"niemand","3","840"
"pfeil","3","1357"
"qual","3","2533"
"rasch","3","8451"
"reiher","3","2767"
"ruhig","3","643"
"schale","3","3345"
"schlaf","3","1857"
"schlafe","3","963"
"schlange","3","8109"
"schloß","3","2332"
"schnell","3","3143"
"schreiten","3","230"
"schritte","3","1336"
"schulter","3","2197"
"schüler","3","4193"
"sechzig","3","3599"
"sehen","3","5376"
"sehr","3","1411"
"siehe","3","4440"
"solchen","3","3965"
"soll","3","1367"
"spott","3","3754"
"sprache","3","9130"
"sprang","3","190"
"stank","3","2511"
"starr","3","1408"
"stirn","3","167"
"streit","3","7233"
"tausend","3","2890"
"teil","3","7"
"tier","3","2894"
"tropfen","3","4520"
"träume","3","497"
"tötete","3","2877"
"umgeben","3","168"
"unverrückt","3","1892"
"verborgen","3","7850"
"vernehmen","3","4660"
"vers","3","1352"
"vollkommenem","3","250"
"warum","3","1156"
"weder","3","4414"
"wegen","3","459"
"wehte","3","1492"
"weiser","3","1011"
"welchem","3","7370"
"welcher","3","5909"
"wer","3","1241"
"willen","3","332"
"wunsch","3","2551"
"wußten","3","860"
"zurückblieb","3","7988"
"überall","3","3912"
"überm","3","2769"
"überwinden","3","2955"
"überwunden","3","2588"
"abgesagt","4","6598"
"allem","4","4087"
"almosenschale","4","5257"
"befragt","4","3818"
"beginnen","4","1637"
"betrachtung","4","126"
"bienen","4","993"
"bleiben","4","4691"
"brahmanensohn","4","55"
"dahin","4","5730"
"davon","4","1641"
"dein","4","1596"
"deinen","4","3960"
"duftete","4","4202"
"ehrwürdiger","4","597"
"einheit","4","7045"
"entselbstung","4","1504"
"erhabener","4","6832"
"erhob","4","1379"
"erleben","4","4650"
"erleuchtung","4","7405"
"erreichen","4","3648"
"erwacht","4","4774"
"fenster","4","1740"
"flucht","4","3273"
"frieden","4","1123"
"frucht","4","4889"
"füllte","4","2011"
"gab","4","1399"
"ganz","4","1264"
"gegen","4","3235"
"gekreuzten","4","1762"
"